code/e18-verilog-tb/src/20_neuron/1_neuron/neuron_tb.vcd
$date
	Sat Apr 12 15:20:42 2025
$end
$version
	Icarus Verilog
$end
$timescale
	100ps
$end
$scope module neuron_tb $end
$var wire 1 ! spike $end
$var reg 1 " clk $end
$var reg 12 # source_address [11:0] $end
$scope module n1 $end
$var wire 1 " clk $end
$var wire 12 $ source_address [11:0] $end
$var wire 1 ! spike $end
$var wire 32 % output_potential_decay [31:0] $end
$var wire 32 & mult_output [31:0] $end
$var wire 32 ' final_potential [31:0] $end
$scope module m0 $end
$var wire 1 " clk $end
$var wire 12 ( source_address [11:0] $end
$var reg 32 ) accumulated_weight [31:0] $end
$var reg 32 * considered_weight [31:0] $end
$var reg 5 + incomingspikes [4:0] $end
$var reg 32 , mult_output [31:0] $end
$var reg 5 - spikes [4:0] $end
$upscope $end
$scope module pa0 $end
$var wire 32 . input_weight [31:0] $end
$var wire 32 / weight_added [31:0] $end
$var wire 32 0 reset_value [31:0] $end
$var wire 1 1 greater $end
$var wire 32 2 decayed_potential [31:0] $end
$var wire 1 3 Exception1 $end
$var wire 1 4 Exception $end
$var reg 32 5 final_potential [31:0] $end
$var reg 2 6 model [1:0] $end
$var reg 1 ! spike $end
$var reg 32 7 v_threshold [31:0] $end
$scope module Addition_Subtraction_1 $end
$var wire 1 8 AddBar_Sub $end
$var wire 1 3 Exception $end
$var wire 32 9 b_operand [31:0] $end
$var wire 1 : operation_sub_addBar $end
$var wire 1 ; output_sign $end
$var wire 25 < subtraction_diff [24:0] $end
$var wire 31 = sub_diff [30:0] $end
$var wire 24 > significand_sub_complement [23:0] $end
$var wire 25 ? significand_sub [24:0] $end
$var wire 24 @ significand_b_add_sub [23:0] $end
$var wire 24 A significand_b [23:0] $end
$var wire 25 B significand_add [24:0] $end
$var wire 24 C significand_a [23:0] $end
$var wire 32 D result [31:0] $end
$var wire 1 E perform $end
$var wire 32 F operand_b [31:0] $end
$var wire 32 G operand_a [31:0] $end
$var wire 8 H exponent_sub [7:0] $end
$var wire 8 I exponent_diff [7:0] $end
$var wire 8 J exponent_b_add_sub [7:0] $end
$var wire 31 K add_sum [30:0] $end
$var wire 32 L a_operand [31:0] $end
$var wire 1 M Comp_enable $end
$scope module pe $end
$var wire 8 N Exponent_a [7:0] $end
$var wire 25 O significand [24:0] $end
$var wire 8 P Exponent_sub [7:0] $end
$var reg 25 Q Significand [24:0] $end
$var reg 5 R shift [4:0] $end
$upscope $end
$upscope $end
$scope module Addition_Subtraction_2 $end
$var wire 1 S AddBar_Sub $end
$var wire 1 4 Exception $end
$var wire 32 T a_operand [31:0] $end
$var wire 1 U operation_sub_addBar $end
$var wire 1 V output_sign $end
$var wire 25 W subtraction_diff [24:0] $end
$var wire 31 X sub_diff [30:0] $end
$var wire 24 Y significand_sub_complement [23:0] $end
$var wire 25 Z significand_sub [24:0] $end
$var wire 24 [ significand_b_add_sub [23:0] $end
$var wire 24 \ significand_b [23:0] $end
$var wire 25 ] significand_add [24:0] $end
$var wire 24 ^ significand_a [23:0] $end
$var wire 32 _ result [31:0] $end
$var wire 1 ` perform $end
$var wire 32 a operand_b [31:0] $end
$var wire 32 b operand_a [31:0] $end
$var wire 8 c exponent_sub [7:0] $end
$var wire 8 d exponent_diff [7:0] $end
$var wire 8 e exponent_b_add_sub [7:0] $end
$var wire 32 f b_operand [31:0] $end
$var wire 31 g add_sum [30:0] $end
$var wire 1 h Comp_enable $end
$scope module pe $end
$var wire 8 i Exponent_a [7:0] $end
$var wire 25 j significand [24:0] $end
$var wire 8 k Exponent_sub [7:0] $end
$var reg 25 l Significand [24:0] $end
$var reg 5 m shift [4:0] $end
$upscope $end
$upscope $end
$scope module comparator_2 $end
$var wire 32 n a_operand [31:0] $end
$var wire 32 o b_operand [31:0] $end
$var wire 32 p result [31:0] $end
$var wire 1 q Exception $end
$var reg 1 1 greater $end
$var reg 1 r sign $end
$scope module Addition_Subtraction_1 $end
$var wire 1 s AddBar_Sub $end
$var wire 1 q Exception $end
$var wire 32 t a_operand [31:0] $end
$var wire 32 u b_operand [31:0] $end
$var wire 1 v operation_sub_addBar $end
$var wire 1 w output_sign $end
$var wire 25 x subtraction_diff [24:0] $end
$var wire 31 y sub_diff [30:0] $end
$var wire 24 z significand_sub_complement [23:0] $end
$var wire 25 { significand_sub [24:0] $end
$var wire 24 | significand_b_add_sub [23:0] $end
$var wire 24 } significand_b [23:0] $end
$var wire 25 ~ significand_add [24:0] $end
$var wire 24 !" significand_a [23:0] $end
$var wire 32 "" result [31:0] $end
$var wire 1 #" perform $end
$var wire 32 $" operand_b [31:0] $end
$var wire 32 %" operand_a [31:0] $end
$var wire 8 &" exponent_sub [7:0] $end
$var wire 8 '" exponent_diff [7:0] $end
$var wire 8 (" exponent_b_add_sub [7:0] $end
$var wire 31 )" add_sum [30:0] $end
$var wire 1 *" Comp_enable $end
$scope module pe $end
$var wire 8 +" Exponent_a [7:0] $end
$var wire 25 ," significand [24:0] $end
$var wire 8 -" Exponent_sub [7:0] $end
$var reg 25 ." Significand [24:0] $end
$var reg 5 /" shift [4:0] $end
$upscope $end
$upscope $end
$upscope $end
$upscope $end
$scope module pd0 $end
$var wire 1 " clk $end
$var wire 32 0" new_potential [31:0] $end
$var wire 32 1" result_divide_by_2_plus_4 [31:0] $end
$var wire 1 2" Exception $end
$var reg 8 3" adjusted_exponent [7:0] $end
$var reg 4 4" decay_rate [3:0] $end
$var reg 8 5" exponent [7:0] $end
$var reg 8 6" exponent_divided_by_2 [7:0] $end
$var reg 8 7" exponent_divided_by_4 [7:0] $end
$var reg 23 8" mantissa [22:0] $end
$var reg 32 9" membrane_potential [31:0] $end
$var reg 2 :" model [1:0] $end
$var reg 12 ;" neuron_address [11:0] $end
$var reg 32 <" number_divided_by_2 [31:0] $end
$var reg 32 =" number_divided_by_4 [31:0] $end
$var reg 32 >" output_potential_decay [31:0] $end
$var reg 32 ?" output_potential_decay_LIF [31:0] $end
$var reg 2 @" sign [1:0] $end
$scope module Addition_Subtraction_1 $end
$var wire 1 A" AddBar_Sub $end
$var wire 1 2" Exception $end
$var wire 32 B" a_operand [31:0] $end
$var wire 32 C" b_operand [31:0] $end
$var wire 1 D" operation_sub_addBar $end
$var wire 1 E" output_sign $end
$var wire 25 F" subtraction_diff [24:0] $end
$var wire 31 G" sub_diff [30:0] $end
$var wire 24 H" significand_sub_complement [23:0] $end
$var wire 25 I" significand_sub [24:0] $end
$var wire 24 J" significand_b_add_sub [23:0] $end
$var wire 24 K" significand_b [23:0] $end
$var wire 25 L" significand_add [24:0] $end
$var wire 24 M" significand_a [23:0] $end
$var wire 32 N" result [31:0] $end
$var wire 1 O" perform $end
$var wire 32 P" operand_b [31:0] $end
$var wire 32 Q" operand_a [31:0] $end
$var wire 8 R" exponent_sub [7:0] $end
$var wire 8 S" exponent_diff [7:0] $end
$var wire 8 T" exponent_b_add_sub [7:0] $end
$var wire 31 U" add_sum [30:0] $end
$var wire 1 V" Comp_enable $end
$scope module pe $end
$var wire 8 W" Exponent_a [7:0] $end
$var wire 25 X" significand [24:0] $end
$var wire 8 Y" Exponent_sub [7:0] $end
$var reg 25 Z" Significand [24:0] $end
$var reg 5 [" shift [4:0] $end
$upscope $end
$upscope $end
$upscope $end
$upscope $end
$upscope $end
$enddefinitions $end
#0
$dumpvars
bx ["
bx Z"
bx Y"
bx X"
bx W"
xV"
bx U"
bx T"
bx S"
bx R"
bx Q"
bx P"
xO"
bx N"
bx M"
bx L"
bx K"
bx J"
bx I"
bx H"
bx G"
bx F"
xE"
xD"
bx C"
bx B"
0A"
bx @"
bx ?"
bx >"
bx ="
bx <"
b0 ;"
b0 :"
b1000001110111101011100001010010 9"
bx 8"
bx 7"
bx 6"
bx 5"
b10 4"
bx 3"
x2"
bx 1"
bx 0"
bx /"
bx ."
bx -"
bx ,"
bx +"
x*"
bx )"
bx ("
bx '"
bx &"
bx %"
bx $"
x#"
bx ""
bx !"
bx ~
bx }
bx |
bx {
bx z
bx y
bx x
xw
xv
b1000010001000000000000000000000 u
bx t
1s
xr
xq
bx p
b1000010001000000000000000000000 o
bx n
bx m
bx l
bx k
bx j
bx i
xh
bx g
bx f
bx e
bx d
bx c
bx b
bx a
x`
bx _
bx ^
bx ]
bx \
bx [
bx Z
bx Y
bx X
bx W
xV
xU
bx T
0S
bx R
bx Q
bx P
bx O
bx N
xM
bx L
bx K
bx J
bx I
bx H
bx G
bx F
xE
bx D
bx C
bx B
bx A
bx @
bx ?
bx >
bx =
bx <
x;
x:
b1000010001000000000000000000000 9
18
b1000010001000000000000000000000 7
b0 6
bx 5
x4
x3
bx 2
x1
bx 0
bx /
bx .
bx -
bx ,
b0 +
bx *
bx )
b0 (
bx '
bx &
bx %
b0 $
b0 #
0"
0!
$end
#50
b1000001110100001010001111011000 y
b10000011 &"
b10000011 -"
b1 /"
b110100001010001111011000 x
b110100001010001111011000 ."
b1011010000101000111101100 {
b1011010000101000111101100 ,"
b1000001110100001010001111011000 =
b10000011 H
b10000011 P
b1 R
b110100001010001111011000 <
b110100001010001111011000 Q
b110010000101000111101100 z
01
1r
b1011010000101000111101100 ?
b1011010000101000111101100 O
b11000001110100001010001111011000 p
b11000001110100001010001111011000 ""
b110010000101000111101100 >
b11000001110100001010001111011000 0
b11000001110100001010001111011000 D
b1101111010111000010100 |
1#"
b10000100 ("
b10 '"
1w
1*"
b1101111010111000010100 @
1E
b10000100 J
b10 I
1;
b1000010000000000000000000000000 )"
b1000010000000000000000000000000 K
1M
b0 ~
b0 B
b110111101011100001010010 }
0q
b101000000000000000000000 !"
b110111101011100001010010 A
03
b101000000000000000000000 C
b10000100 +"
b10000100 N
0v
0:
b1000001001000010100011110101110 X
b10000010 c
b10000010 k
b0 m
b1001000010100011110101110 W
b1001000010100011110101110 l
b110111101011100001010010 Z
b110111101011100001010010 j
b1000001010111101011100001010010 $"
b1000010001000000000000000000000 %"
b1000001010111101011100001010010 F
b1000010001000000000000000000000 G
b1000001010111101011100001010010 9"
b0 Y
b110111101011100001010010 ]
b1000001010111101011100001010010 '
b1000001010111101011100001010010 5
b1000001010111101011100001010010 0"
b1000001010111101011100001010010 g
b1000001010111101011100001010010 /
b1000001010111101011100001010010 L
b1000001010111101011100001010010 _
b1000001010111101011100001010010 n
b1000001010111101011100001010010 t
1U
b0 [
1`
b10000010 e
b10000010 d
b0 \
04
b110111101011100001010010 ^
1h
0V
b10000010 i
b0 a
b1000001010111101011100001010010 b
b1000001010111101011100001010010 %
b1000001010111101011100001010010 2
b1000001010111101011100001010010 f
b1000001010111101011100001010010 >"
b0 &
b0 ,
b0 .
b0 T
b0 *
b0 )
b0 -
b1000001010111101011100001010010 ?"
b10000010 3"
b10111101011100001010010 8"
b10000011 5"
b0 @"
1"
#100
0"
#150
b11000010000001000010100011110110 p
b11000010000001000010100011110110 ""
b11000010000001000010100011110110 0
b11000010000001000010100011110110 D
b1000010000001000010100011110110 y
b10000100 &"
b10000100 -"
b0 /"
b1100001000010100011110110 x
b1100001000010100011110110 ."
b1000010000001000010100011110110 =
b10000100 H
b10000100 P
b0 R
b1100001000010100011110110 <
b1100001000010100011110110 Q
b1100001000010100011110110 {
b1100001000010100011110110 ,"
b1100001000010100011110110 ?
b1100001000010100011110110 O
b111001000010100011110110 z
b111001000010100011110110 >
b110111101011100001010 |
b11 '"
1#"
b10000100 ("
b110111101011100001010 @
b11 I
1E
b10000100 J
b1000000110111101011100001010010 $"
b1000000110111101011100001010010 F
b1000000110111101011100001010010 9"
b1000000110111101011100001010010 '
b1000000110111101011100001010010 5
b1000000110111101011100001010010 0"
b1000000110111101011100001010010 /
b1000000110111101011100001010010 L
b1000000110111101011100001010010 _
b1000000110111101011100001010010 n
b1000000110111101011100001010010 t
b1000000110111101011100001010010 g
b10000001 e
b10000001 d
1`
b1000000101000010100011110101110 X
b10000001 c
b10000001 k
b10000001 i
b1000000110111101011100001010010 b
b1000000110111101011100001010010 %
b1000000110111101011100001010010 2
b1000000110111101011100001010010 f
b1000000110111101011100001010010 >"
b1000000110111101011100001010010 ?"
b10000001 3"
b10000010 5"
1"
#200
0"
#210
b10000 +
b111 #
b111 $
b111 (
#250
1!
b1 /"
11
0r
b1000010010010100101110000100110 p
b1000010010010100101110000100110 ""
b1 R
b101000000000000000000000 }
b101101010010111000010011 !"
b1000010100000000000000000000000 )"
b110010100101110000100110 x
b110010100101110000100110 ."
b110010100101110000100110 <
b110010100101110000100110 Q
b1000010010010100101110000100110 0
b1000010010010100101110000100110 D
b1000010010010100101110000100110 y
b10000100 &"
b10000100 -"
b10000101 +"
0w
b1011001010010111000010011 {
b1011001010010111000010011 ,"
b101000000000000000000000 A
b101101010010111000010011 C
b1011001010010111000010011 ?
b1011001010010111000010011 O
b1000010100000000000000000000000 K
b101100000000000000000000 z
b101100000000000000000000 >
b1000010101101010010111000010011 %"
0*"
b1000010010010100101110000100110 =
b10000100 H
b10000100 P
b10000101 N
0;
b1000010101101010010111000010011 G
0M
b10100000000000000000000 |
b1 '"
1#"
b10000101 ("
b10100000000000000000000 @
b1 I
1E
b10000101 J
b1000010001000000000000000000000 $"
b1000010001000000000000000000000 F
b1000010010010100101110000100110 9"
b1010100011100011110101111 W
b1010100011100011110101111 l
b1000010010010100101110000100110 '
b1000010010010100101110000100110 5
b1000010010010100101110000100110 0"
b101011100011100001010001 Z
b101011100011100001010001 j
b1000010101101010010111000010011 /
b1000010101101010010111000010011 L
b1000010101101010010111000010011 _
b1000010101101010010111000010011 n
b1000010101101010010111000010011 t
b101011100011100001010001 ^
b101101010010111000010011 ]
b1101111010111000010 [
b110111101011100001010010 \
b1000010101101010010111000010011 g
0h
b10000101 e
b101 d
1`
b1000010110100011100011110101111 X
b10000101 c
b10000101 k
b10000101 i
b1000000010111101011100001010010 a
b1000010101011100011100001010001 b
b1000000010111101011100001010010 %
b1000000010111101011100001010010 2
b1000000010111101011100001010010 f
b1000000010111101011100001010010 >"
b0 +
b1000010101011100011100001010001 &
b1000010101011100011100001010001 ,
b1000010101011100011100001010001 .
b1000010101011100011100001010001 T
b0 -
b1000000010111101011100001010010 ?"
b10000000 3"
b10000001 5"
b0 #
b0 $
b0 (
1"
#300
0"
#350
0!
01
1r
b1000001110010100101110000100110 9"
b10 /"
b111010110100011110110100 x
b111010110100011110110100 ."
b10 R
b111010110100011110110100 <
b111010110100011110110100 Q
b1000001110010100101110000100110 '
b1000001110010100101110000100110 5
b1000001110010100101110000100110 0"
b110010100101110000100110 }
b1001110101101000111101101 {
b1001110101101000111101101 ,"
b100110101101000111101101 z
b11000001011010110100011110110100 p
b11000001011010110100011110110100 ""
b1001110101101000111101101 ?
b1001110101101000111101101 O
b100110101101000111101101 >
b11000001011010110100011110110100 0
b11000001011010110100011110110100 D
1w
b101000000000000000000000 !"
b1000010000000000000000000000000 )"
b110010100101110000100110 A
b101000000000000000000000 C
b1000010000000000000000000000000 K
b1000001110010100101110000100110 $"
1*"
b11001010010111000010011 |
b10000100 ("
b1 '"
1#"
b1000001011010110100011110110100 y
b10000010 &"
b10000010 -"
b10000100 +"
b11001010010111000010011 @
b10000100 J
b1 I
1E
b1000001011010110100011110110100 =
b10000010 H
b10000010 P
b10000100 N
1;
b1000010001000000000000000000000 %"
b1000001110010100101110000100110 F
b1000010001000000000000000000000 G
1M
b1001101011010001111011010 W
b1001101011010001111011010 l
b1000001110010100101110000100110 /
b1000001110010100101110000100110 L
b1000001110010100101110000100110 _
b1000001110010100101110000100110 n
b1000001110010100101110000100110 t
b0 \
b110010100101110000100110 Z
b110010100101110000100110 j
b110010100101110000100110 ^
b110010100101110000100110 ]
b1000001110010100101110000100110 g
b0 a
1h
b0 [
b10000011 e
b10000011 d
1`
b1000001101101011010001111011010 X
b10000011 c
b10000011 k
b10000011 i
b1000001110010100101110000100110 b
b1000001110010100101110000100110 %
b1000001110010100101110000100110 2
b1000001110010100101110000100110 f
b1000001110010100101110000100110 >"
b1000001110010100101110000100110 ?"
b10000011 3"
b10010100101110000100110 8"
b10000100 5"
b0 &
b0 ,
b0 .
b0 T
1"
#400
0"
#450
b11000001110110101101000111101110 p
b11000001110110101101000111101110 ""
b11000001110110101101000111101110 0
b11000001110110101101000111101110 D
b1000001110110101101000111101110 y
b10000011 &"
b10000011 -"
b1 /"
b110110101101000111101110 x
b110110101101000111101110 ."
b1000001110110101101000111101110 =
b10000011 H
b10000011 P
b1 R
b110110101101000111101110 <
b110110101101000111101110 Q
b1011011010110100011110111 {
b1011011010110100011110111 ,"
b1011011010110100011110111 ?
b1011011010110100011110111 O
b110011010110100011110111 z
b110011010110100011110111 >
b1100101001011100001001 |
b10 '"
1#"
b10000100 ("
b1100101001011100001001 @
b10 I
1E
b10000100 J
b1000001010010100101110000100110 $"
b1000001010010100101110000100110 F
b1000001010010100101110000100110 9"
b1000001010010100101110000100110 '
b1000001010010100101110000100110 5
b1000001010010100101110000100110 0"
b1000001010010100101110000100110 /
b1000001010010100101110000100110 L
b1000001010010100101110000100110 _
b1000001010010100101110000100110 n
b1000001010010100101110000100110 t
b1000001010010100101110000100110 g
b10000010 e
b10000010 d
1`
b1000001001101011010001111011010 X
b10000010 c
b10000010 k
b10000010 i
b1000001010010100101110000100110 b
b1000001010010100101110000100110 %
b1000001010010100101110000100110 2
b1000001010010100101110000100110 f
b1000001010010100101110000100110 >"
b1000001010010100101110000100110 ?"
b10000010 3"
b10000011 5"
1"
#500
0"
#550
b11000010000001101011010001111100 p
b11000010000001101011010001111100 ""
b11000010000001101011010001111100 0
b11000010000001101011010001111100 D
b1000010000001101011010001111100 y
b10000100 &"
b10000100 -"
b0 /"
b1100001101011010001111100 x
b1100001101011010001111100 ."
b1000010000001101011010001111100 =
b10000100 H
b10000100 P
b0 R
b1100001101011010001111100 <
b1100001101011010001111100 Q
b1100001101011010001111100 {
b1100001101011010001111100 ,"
b1100001101011010001111100 ?
b1100001101011010001111100 O
b111001101011010001111100 z
b111001101011010001111100 >
b110010100101110000100 |
b11 '"
1#"
b10000100 ("
b110010100101110000100 @
b11 I
1E
b10000100 J
b1000000110010100101110000100110 $"
b1000000110010100101110000100110 F
b1000000110010100101110000100110 9"
b1000000110010100101110000100110 '
b1000000110010100101110000100110 5
b1000000110010100101110000100110 0"
b1000000110010100101110000100110 /
b1000000110010100101110000100110 L
b1000000110010100101110000100110 _
b1000000110010100101110000100110 n
b1000000110010100101110000100110 t
b1000000110010100101110000100110 g
b10000001 e
b10000001 d
1`
b1000000101101011010001111011010 X
b10000001 c
b10000001 k
b10000001 i
b1000000110010100101110000100110 b
b1000000110010100101110000100110 %
b1000000110010100101110000100110 2
b1000000110010100101110000100110 f
b1000000110010100101110000100110 >"
b1000000110010100101110000100110 ?"
b10000001 3"
b10000010 5"
1"
#600
0"
#650
b11000010000100110101101000111110 p
b11000010000100110101101000111110 ""
b11000010000100110101101000111110 0
b11000010000100110101101000111110 D
b1000010000100110101101000111110 y
b1000010000100110101101000111110 =
b1100100110101101000111110 x
b1100100110101101000111110 ."
b1100100110101101000111110 <
b1100100110101101000111110 Q
b1100100110101101000111110 {
b1100100110101101000111110 ,"
b1100100110101101000111110 ?
b1100100110101101000111110 O
b111100110101101000111110 z
b111100110101101000111110 >
b11001010010111000010 |
b100 '"
1#"
b10000100 ("
b11001010010111000010 @
b100 I
1E
b10000100 J
b1000000010010100101110000100110 $"
b1000000010010100101110000100110 F
b1000000010010100101110000100110 9"
b1000000010010100101110000100110 '
b1000000010010100101110000100110 5
b1000000010010100101110000100110 0"
b1000000010010100101110000100110 /
b1000000010010100101110000100110 L
b1000000010010100101110000100110 _
b1000000010010100101110000100110 n
b1000000010010100101110000100110 t
b1000000010010100101110000100110 g
b10000000 e
b10000000 d
1`
b1000000001101011010001111011010 X
b10000000 c
b10000000 k
b10000000 i
b1000000010010100101110000100110 b
b1000000010010100101110000100110 %
b1000000010010100101110000100110 2
b1000000010010100101110000100110 f
b1000000010010100101110000100110 >"
b1000000010010100101110000100110 ?"
b10000000 3"
b10000001 5"
1"
#700
0"
#750
b11000010000110011010110100011111 p
b11000010000110011010110100011111 ""
b11000010000110011010110100011111 0
b11000010000110011010110100011111 D
b1000010000110011010110100011111 y
b1000010000110011010110100011111 =
b1100110011010110100011111 x
b1100110011010110100011111 ."
b1100110011010110100011111 <
b1100110011010110100011111 Q
b1100110011010110100011111 {
b1100110011010110100011111 ,"
b1100110011010110100011111 ?
b1100110011010110100011111 O
b111110011010110100011111 z
b111110011010110100011111 >
b1100101001011100001 |
b101 '"
1#"
b10000100 ("
b1100101001011100001 @
b101 I
1E
b10000100 J
b111111110010100101110000100110 $"
b111111110010100101110000100110 F
b111111110010100101110000100110 9"
b111111110010100101110000100110 '
b111111110010100101110000100110 5
b111111110010100101110000100110 0"
b111111110010100101110000100110 /
b111111110010100101110000100110 L
b111111110010100101110000100110 _
b111111110010100101110000100110 n
b111111110010100101110000100110 t
b111111110010100101110000100110 g
b1111111 e
b1111111 d
1`
b111111101101011010001111011010 X
b1111111 c
b1111111 k
b1111111 i
b111111110010100101110000100110 b
b111111110010100101110000100110 %
b111111110010100101110000100110 2
b111111110010100101110000100110 f
b111111110010100101110000100110 >"
b111111110010100101110000100110 ?"
b1111111 3"
b10000000 5"
1"
#800
0"
#850
b11000010000111001101011010010000 p
b11000010000111001101011010010000 ""
b11000010000111001101011010010000 0
b11000010000111001101011010010000 D
b1000010000111001101011010010000 y
b1000010000111001101011010010000 =
b1100111001101011010010000 x
b1100111001101011010010000 ."
b1100111001101011010010000 <
b1100111001101011010010000 Q
b1100111001101011010010000 {
b1100111001101011010010000 ,"
b1100111001101011010010000 ?
b1100111001101011010010000 O
b111111001101011010010000 z
b111111001101011010010000 >
b110010100101110000 |
b110 '"
1#"
b10000100 ("
b110010100101110000 @
b110 I
1E
b10000100 J
b111111010010100101110000100110 $"
b111111010010100101110000100110 F
b111111010010100101110000100110 9"
b111111010010100101110000100110 '
b111111010010100101110000100110 5
b111111010010100101110000100110 0"
b111111010010100101110000100110 /
b111111010010100101110000100110 L
b111111010010100101110000100110 _
b111111010010100101110000100110 n
b111111010010100101110000100110 t
b111111010010100101110000100110 g
b1111110 e
b1111110 d
1`
b111111001101011010001111011010 X
b1111110 c
b1111110 k
b1111110 i
b111111010010100101110000100110 b
b111111010010100101110000100110 %
b111111010010100101110000100110 2
b111111010010100101110000100110 f
b111111010010100101110000100110 >"
b111111010010100101110000100110 ?"
b1111110 3"
b1111111 5"
1"
#900
0"
#950
b11000010000111100110101101001000 p
b11000010000111100110101101001000 ""
b11000010000111100110101101001000 0
b11000010000111100110101101001000 D
b1000010000111100110101101001000 y
b1000010000111100110101101001000 =
b1100111100110101101001000 x
b1100111100110101101001000 ."
b1100111100110101101001000 <
b1100111100110101101001000 Q
b1100111100110101101001000 {
b1100111100110101101001000 ,"
b1100111100110101101001000 ?
b1100111100110101101001000 O
b111111100110101101001000 z
b111111100110101101001000 >
b11001010010111000 |
b111 '"
1#"
b10000100 ("
b11001010010111000 @
b111 I
1E
b10000100 J
b111110110010100101110000100110 $"
b111110110010100101110000100110 F
b111110110010100101110000100110 9"
b111110110010100101110000100110 '
b111110110010100101110000100110 5
b111110110010100101110000100110 0"
b111110110010100101110000100110 /
b111110110010100101110000100110 L
b111110110010100101110000100110 _
b111110110010100101110000100110 n
b111110110010100101110000100110 t
b111110110010100101110000100110 g
b1111101 e
b1111101 d
1`
b111110101101011010001111011010 X
b1111101 c
b1111101 k
b1111101 i
b111110110010100101110000100110 b
b111110110010100101110000100110 %
b111110110010100101110000100110 2
b111110110010100101110000100110 f
b111110110010100101110000100110 >"
b111110110010100101110000100110 ?"
b1111101 3"
b1111110 5"
1"
#1000
0"
#1050
b11000010000111110011010110100100 p
b11000010000111110011010110100100 ""
b11000010000111110011010110100100 0
b11000010000111110011010110100100 D
b1000010000111110011010110100100 y
b1000010000111110011010110100100 =
b1100111110011010110100100 x
b1100111110011010110100100 ."
b1100111110011010110100100 <
b1100111110011010110100100 Q
b1100111110011010110100100 {
b1100111110011010110100100 ,"
b1100111110011010110100100 ?
b1100111110011010110100100 O
b111111110011010110100100 z
b111111110011010110100100 >
b1100101001011100 |
b1000 '"
1#"
b10000100 ("
b1100101001011100 @
b1000 I
1E
b10000100 J
b111110010010100101110000100110 $"
b111110010010100101110000100110 F
b111110010010100101110000100110 9"
b111110010010100101110000100110 '
b111110010010100101110000100110 5
b111110010010100101110000100110 0"
b111110010010100101110000100110 /
b111110010010100101110000100110 L
b111110010010100101110000100110 _
b111110010010100101110000100110 n
b111110010010100101110000100110 t
b111110010010100101110000100110 g
b1111100 e
b1111100 d
1`
b111110001101011010001111011010 X
b1111100 c
b1111100 k
b1111100 i
b111110010010100101110000100110 b
b111110010010100101110000100110 %
b111110010010100101110000100110 2
b111110010010100101110000100110 f
b111110010010100101110000100110 >"
b111110010010100101110000100110 ?"
b1111100 3"
b1111101 5"
1"
#1100
0"
#1150
b11000010000111111001101011010010 p
b11000010000111111001101011010010 ""
b11000010000111111001101011010010 0
b11000010000111111001101011010010 D
b1000010000111111001101011010010 y
b1000010000111111001101011010010 =
b1100111111001101011010010 x
b1100111111001101011010010 ."
b1100111111001101011010010 <
b1100111111001101011010010 Q
b1100111111001101011010010 {
b1100111111001101011010010 ,"
b1100111111001101011010010 ?
b1100111111001101011010010 O
b111111111001101011010010 z
b111111111001101011010010 >
b110010100101110 |
b1001 '"
1#"
b10000100 ("
b110010100101110 @
b1001 I
1E
b10000100 J
b111101110010100101110000100110 $"
b111101110010100101110000100110 F
b111101110010100101110000100110 9"
b111101110010100101110000100110 '
b111101110010100101110000100110 5
b111101110010100101110000100110 0"
b111101110010100101110000100110 /
b111101110010100101110000100110 L
b111101110010100101110000100110 _
b111101110010100101110000100110 n
b111101110010100101110000100110 t
b111101110010100101110000100110 g
b1111011 e
b1111011 d
1`
b111101101101011010001111011010 X
b1111011 c
b1111011 k
b1111011 i
b111101110010100101110000100110 b
b111101110010100101110000100110 %
b111101110010100101110000100110 2
b111101110010100101110000100110 f
b111101110010100101110000100110 >"
b111101110010100101110000100110 ?"
b1111011 3"
b1111100 5"
1"
#1200
0"
#1250
b11000010000111111100110101101001 p
b11000010000111111100110101101001 ""
b11000010000111111100110101101001 0
b11000010000111111100110101101001 D
b1000010000111111100110101101001 y
b1000010000111111100110101101001 =
b1100111111100110101101001 x
b1100111111100110101101001 ."
b1100111111100110101101001 <
b1100111111100110101101001 Q
b1100111111100110101101001 {
b1100111111100110101101001 ,"
b1100111111100110101101001 ?
b1100111111100110101101001 O
b111111111100110101101001 z
b111111111100110101101001 >
b11001010010111 |
b1010 '"
1#"
b10000100 ("
b11001010010111 @
b1010 I
1E
b10000100 J
b111101010010100101110000100110 $"
b111101010010100101110000100110 F
b111101010010100101110000100110 9"
b111101010010100101110000100110 '
b111101010010100101110000100110 5
b111101010010100101110000100110 0"
b111101010010100101110000100110 /
b111101010010100101110000100110 L
b111101010010100101110000100110 _
b111101010010100101110000100110 n
b111101010010100101110000100110 t
b111101010010100101110000100110 g
b1111010 e
b1111010 d
1`
b111101001101011010001111011010 X
b1111010 c
b1111010 k
b1111010 i
b111101010010100101110000100110 b
b111101010010100101110000100110 %
b111101010010100101110000100110 2
b111101010010100101110000100110 f
b111101010010100101110000100110 >"
b111101010010100101110000100110 ?"
b1111010 3"
b1111011 5"
1"
#1300
0"
#1350
b11000010000111111110011010110101 p
b11000010000111111110011010110101 ""
b11000010000111111110011010110101 0
b11000010000111111110011010110101 D
b1000010000111111110011010110101 y
b1000010000111111110011010110101 =
b1100111111110011010110101 x
b1100111111110011010110101 ."
b1100111111110011010110101 <
b1100111111110011010110101 Q
b1100111111110011010110101 {
b1100111111110011010110101 ,"
b1100111111110011010110101 ?
b1100111111110011010110101 O
b111111111110011010110101 z
b111111111110011010110101 >
b1100101001011 |
b1011 '"
1#"
b10000100 ("
b1100101001011 @
b1011 I
1E
b10000100 J
b111100110010100101110000100110 $"
b111100110010100101110000100110 F
b111100110010100101110000100110 9"
b111100110010100101110000100110 '
b111100110010100101110000100110 5
b111100110010100101110000100110 0"
b111100110010100101110000100110 /
b111100110010100101110000100110 L
b111100110010100101110000100110 _
b111100110010100101110000100110 n
b111100110010100101110000100110 t
b111100110010100101110000100110 g
b1111001 e
b1111001 d
1`
b111100101101011010001111011010 X
b1111001 c
b1111001 k
b1111001 i
b111100110010100101110000100110 b
b111100110010100101110000100110 %
b111100110010100101110000100110 2
b111100110010100101110000100110 f
b111100110010100101110000100110 >"
b111100110010100101110000100110 ?"
b1111001 3"
b1111010 5"
1"
#1400
0"
